<?xml version="1.0" encoding="UTF-8" standalone="no"?>
<svg width="237px" height="57px" viewBox="0 0 237 57" version="1.1" xmlns="http://www.w3.org/2000/svg" xmlns:xlink="http://www.w3.org/1999/xlink" xmlns:sketch="http://www.bohemiancoding.com/sketch/ns">
    <!-- Generator: Sketch 3.4.4 (17249) - http://www.bohemiancoding.com/sketch -->
    <title>Page 1</title>
    <desc>Created with Sketch.</desc>
    <defs>
        <path id="path-1" d="M0,0.0250373832 L236.697492,0.0250373832 L236.697492,57 L0,57"></path>
        <path id="path-3" d="M0,0.0250373832 L236.697492,0.0250373832 L236.697492,57 L0,57"></path>
    </defs>
    <g id="Page-1" stroke="none" stroke-width="1" fill="none" fill-rule="evenodd" sketch:type="MSPage">
        <g id="Homepage---correcties-Timar-Copy-2" sketch:type="MSArtboardGroup" transform="translate(-245.000000, -26.000000)">
            <g id="Page-1" sketch:type="MSLayerGroup" transform="translate(245.000000, 26.000000)">
                <path d="M73.5879142,3.49687009 C71.8144085,3.49687009 70.7769344,4.93092617 70.7769344,6.45927196 C70.7769344,8.47824393 71.8708625,9.27091682 73.4366602,9.27091682 C75.0594445,9.27091682 76.0212917,8.13837477 76.0212917,6.61002897 C76.0212917,4.4403 75.2101658,3.49687009 73.5879142,3.49687009 M77.7569838,10.7236178 C77.7569838,13.8559542 75.625049,15.3086551 72.9839636,15.3086551 C71.3803524,15.3086551 69.8337276,14.4973374 69.8337276,13.2896832 L69.8337276,12.5918327 L69.9658085,12.5918327 C70.6640265,13.2518607 71.5316063,13.6860196 73.1916715,13.6860196 C74.8325636,13.6860196 76.1155591,12.7617673 76.1155591,10.8179075 C76.1155591,10.5350383 76.0212917,10.0065897 76.0212917,9.51596355 L76.0212917,9.00669252 C75.6064085,9.95012243 74.7574692,10.837085 73.2294849,10.837085 C70.8712018,10.837085 69.0412422,9.32738411 69.0412422,6.81778598 C69.0412422,4.32736542 70.5692265,1.89287944 73.852076,1.89287944 C76.1155591,1.89287944 77.6813569,3.30829065 77.6813569,6.1764028 L77.6813569,8.94969252 C77.6813569,9.42167383 77.7569838,10.3459262 77.7569838,10.7236178" id="Fill-1" fill="#F1B800" sketch:type="MSShapeGroup"></path>
                <path d="M85.4535189,3.44018972 C83.7934537,3.44018972 82.7368065,4.83695607 82.6803526,6.13836729 L82.6617121,6.55388131 L84.9438357,6.51605888 C87.3777458,6.47823645 87.792629,6.25183458 87.792629,5.49698411 C87.792629,4.4027972 87.0379571,3.44018972 85.4535189,3.44018972 M85.1707166,7.91229252 L82.6803526,7.91229252 C82.850247,9.59139533 84.019802,10.7804047 85.9062155,10.7804047 C87.4528402,10.7804047 88.396047,10.2897785 88.962184,9.74268505 L89.0564515,9.74268505 L89.0564515,10.4970028 C89.0564515,11.5539 87.9247099,12.3652178 85.6612267,12.3652178 C82.8880604,12.3652178 80.92602,10.2327785 80.92602,7.32737664 C80.92602,4.06292804 82.9631548,1.89319907 85.6420537,1.89319907 C87.6040942,1.89319907 89.4526942,3.38372243 89.4526942,5.40269439 C89.4526942,7.17661963 88.6229279,7.91229252 85.1707166,7.91229252" id="Fill-3" fill="#F1B800" sketch:type="MSShapeGroup"></path>
                <path d="M106.392815,12.176585 C105.732411,12.176585 105.261073,11.7237813 105.261073,10.9124636 L105.261073,6.45953832 C105.261073,4.34574393 104.468588,3.51578131 103.091858,3.51578131 C101.431793,3.51578131 100.733575,4.3649215 100.733575,6.40253832 L100.733575,12.176585 L100.148797,12.176585 C99.3184982,12.176585 98.9978825,11.7237813 98.9978825,10.9124636 L98.9978825,6.45953832 C98.9978825,4.62914579 98.1867566,3.51578131 96.7343993,3.51578131 C95.243696,3.51578131 94.4703836,4.40274393 94.4703836,6.45953832 L94.4703836,12.176585 L93.9234196,12.176585 C93.2065611,12.176585 92.735224,11.7616037 92.735224,10.9124636 L92.735224,6.23313645 C92.735224,3.91211776 94.2067544,1.89314579 96.8473072,1.89314579 C98.3380106,1.89314579 99.3563117,2.55370654 99.9789027,3.72353832 C100.639307,2.62881869 101.827503,1.89314579 103.148312,1.89314579 C105.657316,1.89314579 106.996233,3.40231402 106.996233,6.40253832 L106.996233,12.176585 L106.392815,12.176585 Z" id="Fill-5" fill="#F1B800" sketch:type="MSShapeGroup"></path>
                <path d="M114.806528,3.44018972 C113.146463,3.44018972 112.089816,4.83695607 112.033362,6.13836729 L112.014721,6.55388131 L114.296845,6.51605888 C116.730755,6.47823645 117.145638,6.25183458 117.145638,5.49698411 C117.145638,4.4027972 116.390966,3.44018972 114.806528,3.44018972 M114.523193,7.91229252 L112.033362,7.91229252 C112.203256,9.59139533 113.372811,10.7804047 115.259225,10.7804047 C116.805849,10.7804047 117.749056,10.2897785 118.315193,9.74268505 L118.409461,9.74268505 L118.409461,10.4970028 C118.409461,11.5539 117.277719,12.3652178 115.014236,12.3652178 C112.24107,12.3652178 110.279029,10.2327785 110.279029,7.32737664 C110.279029,4.06292804 112.316164,1.89319907 114.995063,1.89319907 C116.957103,1.89319907 118.805703,3.38372243 118.805703,5.40269439 C118.805703,7.17661963 117.975937,7.91229252 114.523193,7.91229252" id="Fill-7" fill="#F1B800" sketch:type="MSShapeGroup"></path>
                <path d="M126.351464,3.44018972 C124.691399,3.44018972 123.634751,4.83695607 123.578298,6.13836729 L123.559657,6.55388131 L125.842313,6.51605888 C128.275158,6.47823645 128.690574,6.25183458 128.690574,5.49698411 C128.690574,4.4027972 127.936435,3.44018972 126.351464,3.44018972 M126.068662,7.91229252 L123.578298,7.91229252 C123.748192,9.59139533 124.917747,10.7804047 126.80416,10.7804047 C128.351318,10.7804047 129.293992,10.2897785 129.860129,9.74268505 L129.954929,9.74268505 L129.954929,10.4970028 C129.954929,11.5539 128.822655,12.3652178 126.559172,12.3652178 C123.786005,12.3652178 121.823965,10.2327785 121.823965,7.32737664 C121.823965,4.06292804 123.8611,1.89319907 126.540531,1.89319907 C128.502039,1.89319907 130.350639,3.38372243 130.350639,5.40269439 C130.350639,7.17661963 129.52034,7.91229252 126.068662,7.91229252" id="Fill-9" fill="#F1B800" sketch:type="MSShapeGroup"></path>
                <path d="M141.367304,12.176585 C140.669087,12.176585 140.292549,11.818071 140.292549,11.0632206 L140.292549,6.42171589 C140.292549,4.32709907 139.518704,3.51578131 137.726558,3.51578131 C136.217215,3.51578131 135.349635,4.3649215 135.349635,6.42171589 L135.349635,12.176585 L134.708403,12.176585 C134.085812,12.176585 133.651756,11.7994262 133.651756,11.0067533 L133.651756,6.38389346 C133.651756,3.55360374 135.349635,1.89314579 137.934266,1.89314579 C140.461911,1.89314579 141.989896,3.34584673 141.989896,6.36471589 L141.989896,12.176585 L141.367304,12.176585 Z" id="Fill-11" fill="#F1B800" sketch:type="MSShapeGroup"></path>
                <path d="M147.460335,2.10058318 L150.931719,2.10058318 L150.931719,2.66685421 C150.931719,3.28959252 150.516303,3.70457383 149.61091,3.70457383 L147.478975,3.70457383 L147.478975,8.70459252 C147.478975,10.1386486 148.045112,10.7427421 149.13904,10.7427421 C149.761631,10.7427421 150.365582,10.6857421 150.724011,10.4593402 L150.818279,10.4593402 L150.818279,11.0634336 C150.818279,11.9125738 150.157874,12.3653776 148.988319,12.3653776 C146.743476,12.3653776 145.762989,11.1955458 145.762989,8.8745271 L145.762989,2.30834019 C145.762989,1.7234243 145.91371,1.15715327 146.196512,0.742171963 C146.442034,0.383657944 147.007638,0.0251439252 147.252627,0.0251439252 L147.460335,0.0251439252 L147.460335,2.10058318 Z" id="Fill-13" fill="#F1B800" sketch:type="MSShapeGroup"></path>
                <path d="M157.816596,3.44018972 C156.157063,3.44018972 155.099883,4.83695607 155.043962,6.13836729 L155.024789,6.55388131 L157.307445,6.51605888 C159.740823,6.47823645 160.156238,6.25183458 160.156238,5.49698411 C160.156238,4.4027972 159.401567,3.44018972 157.816596,3.44018972 M157.533793,7.91229252 L155.043962,7.91229252 C155.213324,9.59139533 156.383411,10.7804047 158.269825,10.7804047 C159.81645,10.7804047 160.759656,10.2897785 161.325793,9.74268505 L161.420061,9.74268505 L161.420061,10.4970028 C161.420061,11.5539 160.288319,12.3652178 158.024304,12.3652178 C155.25167,12.3652178 153.289629,10.2327785 153.289629,7.32737664 C153.289629,4.06292804 155.326764,1.89319907 158.005131,1.89319907 C159.967171,1.89319907 161.816304,3.38372243 161.816304,5.40269439 C161.816304,7.17661963 160.986005,7.91229252 157.533793,7.91229252" id="Fill-15" fill="#F1B800" sketch:type="MSShapeGroup"></path>
                <path d="M73.5879142,3.49687009 C71.8144085,3.49687009 70.7769344,4.93092617 70.7769344,6.45927196 C70.7769344,8.47824393 71.8708625,9.27091682 73.4366602,9.27091682 C75.0594445,9.27091682 76.0212917,8.13837477 76.0212917,6.61002897 C76.0212917,4.4403 75.2101658,3.49687009 73.5879142,3.49687009 M77.7569838,10.7236178 C77.7569838,13.8559542 75.625049,15.3086551 72.9839636,15.3086551 C71.3803524,15.3086551 69.8337276,14.4973374 69.8337276,13.2896832 L69.8337276,12.5918327 L69.9658085,12.5918327 C70.6640265,13.2518607 71.5316063,13.6860196 73.1916715,13.6860196 C74.8325636,13.6860196 76.1155591,12.7617673 76.1155591,10.8179075 C76.1155591,10.5350383 76.0212917,10.0065897 76.0212917,9.51596355 L76.0212917,9.00669252 C75.6064085,9.95012243 74.7574692,10.837085 73.2294849,10.837085 C70.8712018,10.837085 69.0412422,9.32738411 69.0412422,6.81778598 C69.0412422,4.32736542 70.5692265,1.89287944 73.852076,1.89287944 C76.1155591,1.89287944 77.6813569,3.30829065 77.6813569,6.1764028 L77.6813569,8.94969252 C77.6813569,9.42167383 77.7569838,10.3459262 77.7569838,10.7236178" id="Fill-17" fill="#F1B800" sketch:type="MSShapeGroup"></path>
                <path d="M85.4535189,3.44018972 C83.7934537,3.44018972 82.7368065,4.83695607 82.6803526,6.13836729 L82.6617121,6.55388131 L84.9438357,6.51605888 C87.3777458,6.47823645 87.792629,6.25183458 87.792629,5.49698411 C87.792629,4.4027972 87.0379571,3.44018972 85.4535189,3.44018972 M85.1707166,7.91229252 L82.6803526,7.91229252 C82.850247,9.59139533 84.019802,10.7804047 85.9062155,10.7804047 C87.4528402,10.7804047 88.396047,10.2897785 88.962184,9.74268505 L89.0564515,9.74268505 L89.0564515,10.4970028 C89.0564515,11.5539 87.9247099,12.3652178 85.6612267,12.3652178 C82.8880604,12.3652178 80.92602,10.2327785 80.92602,7.32737664 C80.92602,4.06292804 82.9631548,1.89319907 85.6420537,1.89319907 C87.6040942,1.89319907 89.4526942,3.38372243 89.4526942,5.40269439 C89.4526942,7.17661963 88.6229279,7.91229252 85.1707166,7.91229252" id="Fill-19" fill="#F1B800" sketch:type="MSShapeGroup"></path>
                <path d="M106.392815,12.176585 C105.732411,12.176585 105.261073,11.7237813 105.261073,10.9124636 L105.261073,6.45953832 C105.261073,4.34574393 104.468588,3.51578131 103.091858,3.51578131 C101.431793,3.51578131 100.733575,4.3649215 100.733575,6.40253832 L100.733575,12.176585 L100.148797,12.176585 C99.3184982,12.176585 98.9978825,11.7237813 98.9978825,10.9124636 L98.9978825,6.45953832 C98.9978825,4.62914579 98.1867566,3.51578131 96.7343993,3.51578131 C95.243696,3.51578131 94.4703836,4.40274393 94.4703836,6.45953832 L94.4703836,12.176585 L93.9234196,12.176585 C93.2065611,12.176585 92.735224,11.7616037 92.735224,10.9124636 L92.735224,6.23313645 C92.735224,3.91211776 94.2067544,1.89314579 96.8473072,1.89314579 C98.3380106,1.89314579 99.3563117,2.55370654 99.9789027,3.72353832 C100.639307,2.62881869 101.827503,1.89314579 103.148312,1.89314579 C105.657316,1.89314579 106.996233,3.40231402 106.996233,6.40253832 L106.996233,12.176585 L106.392815,12.176585 Z" id="Fill-21" fill="#F1B800" sketch:type="MSShapeGroup"></path>
                <path d="M114.806528,3.44018972 C113.146463,3.44018972 112.089816,4.83695607 112.033362,6.13836729 L112.014721,6.55388131 L114.296845,6.51605888 C116.730755,6.47823645 117.145638,6.25183458 117.145638,5.49698411 C117.145638,4.4027972 116.390966,3.44018972 114.806528,3.44018972 M114.523193,7.91229252 L112.033362,7.91229252 C112.203256,9.59139533 113.372811,10.7804047 115.259225,10.7804047 C116.805849,10.7804047 117.749056,10.2897785 118.315193,9.74268505 L118.409461,9.74268505 L118.409461,10.4970028 C118.409461,11.5539 117.277719,12.3652178 115.014236,12.3652178 C112.24107,12.3652178 110.279029,10.2327785 110.279029,7.32737664 C110.279029,4.06292804 112.316164,1.89319907 114.995063,1.89319907 C116.957103,1.89319907 118.805703,3.38372243 118.805703,5.40269439 C118.805703,7.17661963 117.975937,7.91229252 114.523193,7.91229252" id="Fill-23" fill="#F1B800" sketch:type="MSShapeGroup"></path>
                <path d="M126.351464,3.44018972 C124.691399,3.44018972 123.634751,4.83695607 123.578298,6.13836729 L123.559657,6.55388131 L125.842313,6.51605888 C128.275158,6.47823645 128.690574,6.25183458 128.690574,5.49698411 C128.690574,4.4027972 127.936435,3.44018972 126.351464,3.44018972 M126.068662,7.91229252 L123.578298,7.91229252 C123.748192,9.59139533 124.917747,10.7804047 126.80416,10.7804047 C128.351318,10.7804047 129.293992,10.2897785 129.860129,9.74268505 L129.954929,9.74268505 L129.954929,10.4970028 C129.954929,11.5539 128.822655,12.3652178 126.559172,12.3652178 C123.786005,12.3652178 121.823965,10.2327785 121.823965,7.32737664 C121.823965,4.06292804 123.8611,1.89319907 126.540531,1.89319907 C128.502039,1.89319907 130.350639,3.38372243 130.350639,5.40269439 C130.350639,7.17661963 129.52034,7.91229252 126.068662,7.91229252" id="Fill-25" fill="#F1B800" sketch:type="MSShapeGroup"></path>
                <path d="M141.367304,12.176585 C140.669087,12.176585 140.292549,11.818071 140.292549,11.0632206 L140.292549,6.42171589 C140.292549,4.32709907 139.518704,3.51578131 137.726558,3.51578131 C136.217215,3.51578131 135.349635,4.3649215 135.349635,6.42171589 L135.349635,12.176585 L134.708403,12.176585 C134.085812,12.176585 133.651756,11.7994262 133.651756,11.0067533 L133.651756,6.38389346 C133.651756,3.55360374 135.349635,1.89314579 137.934266,1.89314579 C140.461911,1.89314579 141.989896,3.34584673 141.989896,6.36471589 L141.989896,12.176585 L141.367304,12.176585 Z" id="Fill-27" fill="#F1B800" sketch:type="MSShapeGroup"></path>
                <path d="M147.460335,2.10058318 L150.931719,2.10058318 L150.931719,2.66685421 C150.931719,3.28959252 150.516303,3.70457383 149.61091,3.70457383 L147.478975,3.70457383 L147.478975,8.70459252 C147.478975,10.1386486 148.045112,10.7427421 149.13904,10.7427421 C149.761631,10.7427421 150.365582,10.6857421 150.724011,10.4593402 L150.818279,10.4593402 L150.818279,11.0634336 C150.818279,11.9125738 150.157874,12.3653776 148.988319,12.3653776 C146.743476,12.3653776 145.762989,11.1955458 145.762989,8.8745271 L145.762989,2.30834019 C145.762989,1.7234243 145.91371,1.15715327 146.196512,0.742171963 C146.442034,0.383657944 147.007638,0.0251439252 147.252627,0.0251439252 L147.460335,0.0251439252 L147.460335,2.10058318 Z" id="Fill-29" fill="#F1B800" sketch:type="MSShapeGroup"></path>
                <path d="M157.816596,3.44018972 C156.157063,3.44018972 155.099883,4.83695607 155.043962,6.13836729 L155.024789,6.55388131 L157.307445,6.51605888 C159.740823,6.47823645 160.156238,6.25183458 160.156238,5.49698411 C160.156238,4.4027972 159.401567,3.44018972 157.816596,3.44018972 M157.533793,7.91229252 L155.043962,7.91229252 C155.213324,9.59139533 156.383411,10.7804047 158.269825,10.7804047 C159.81645,10.7804047 160.759656,10.2897785 161.325793,9.74268505 L161.420061,9.74268505 L161.420061,10.4970028 C161.420061,11.5539 160.288319,12.3652178 158.024304,12.3652178 C155.25167,12.3652178 153.289629,10.2327785 153.289629,7.32737664 C153.289629,4.06292804 155.326764,1.89319907 158.005131,1.89319907 C159.967171,1.89319907 161.816304,3.38372243 161.816304,5.40269439 C161.816304,7.17661963 160.986005,7.91229252 157.533793,7.91229252" id="Fill-31" fill="#F1B800" sketch:type="MSShapeGroup"></path>
                <path d="M191.155093,45.5019813 C191.155093,45.5019813 190.297632,33.7232243 178.189861,33.8159159 C178.189861,33.8159159 175.701095,45.0145514 189.139261,46.5860467 C189.139261,46.5860467 191.322857,46.9062056 191.155093,45.5019813" id="Fill-33" fill="#F1B800" sketch:type="MSShapeGroup"></path>
                <path d="M197.701619,37.7259028 C197.701619,37.7259028 201.946848,30.2871364 193.812156,22.7088 C193.812156,22.7088 185.880378,28.9489682 194.901291,38.3459776 C194.901291,38.3459776 196.783976,40.1683794 197.701619,37.7259028" id="Fill-35" fill="#F1B800" sketch:type="MSShapeGroup"></path>
                <g id="Group-39">
                    <mask id="mask-2" sketch:name="Clip 38" fill="white">
                        <use xlink:href="#path-1"></use>
                    </mask>
                    <g id="Clip-38"></g>
                    <path d="M185.335704,53.2696963 C185.335704,53.2696963 180.589313,45.554986 169.537657,49.3681262 C169.537657,49.3681262 171.335129,59.9339019 184.508601,56.2017336 C184.508601,56.2017336 187.131046,55.3573879 185.335704,53.2696963" id="Fill-37" fill="#F1B800" sketch:type="MSShapeGroup" mask="url(#mask-2)"></path>
                </g>
                <path d="M204.982046,30.6802234 C204.982046,30.6802234 210.572583,23.5237935 206.898284,16.6779336 C206.898284,16.6779336 201.165014,17.9804103 201.697066,28.4417748 C201.697066,28.4417748 201.924479,33.769943 204.982046,30.6802234" id="Fill-40" fill="#F1B800" sketch:type="MSShapeGroup"></path>
                <path d="M211.630508,26.4908832 C211.630508,26.4908832 218.061996,22.4342944 216.033382,13.4203037 C216.033382,13.4203037 210.675052,15.1633318 210.603153,24.3296776 C210.603153,24.3296776 210.670791,26.8611168 211.630508,26.4908832" id="Fill-42" fill="#F1B800" sketch:type="MSShapeGroup"></path>
                <path d="M218.453179,23.6238897 C218.453179,23.6238897 224.376581,20.5714598 225.060419,14.1224692 C225.060419,14.1224692 225.787397,11.8067776 222.997188,13.8774224 C219.425145,16.5239271 217.882249,18.9855813 217.656965,23.0416374 C217.656965,23.0416374 217.801828,23.8092729 218.453179,23.6238897" id="Fill-44" fill="#F1B800" sketch:type="MSShapeGroup"></path>
                <path d="M224.751627,21.8759607 C224.751627,21.8759607 231.53249,23.0085028 236.697492,15.425372 C236.697492,15.425372 230.875813,13.1070168 225.060526,20.7045308 C225.060526,20.7045308 224.229694,21.5488766 224.751627,21.8759607" id="Fill-46" fill="#F1B800" sketch:type="MSShapeGroup"></path>
                <path d="M220.575687,25.454815 C220.575687,25.454815 225.68104,21.4530953 230.939244,24.5864972 C230.939244,24.5864972 224.927433,30.3083383 220.628945,27.0177869 C220.628945,27.0177869 219.699586,26.4115626 220.575687,25.454815" id="Fill-48" fill="#F1B800" sketch:type="MSShapeGroup"></path>
                <path d="M213.472664,27.9638271 C213.472664,27.9638271 219.07332,26.7199486 222.354572,30.7440421 C222.354572,30.7440421 217.904298,33.9791916 211.859999,30.479285 C211.859999,30.479285 210.212183,28.6313131 213.472664,27.9638271" id="Fill-50" fill="#F1B800" sketch:type="MSShapeGroup"></path>
                <g id="Group-54">
                    <mask id="mask-4" sketch:name="Clip 53" fill="white">
                        <use xlink:href="#path-3"></use>
                    </mask>
                    <g id="Clip-53"></g>
                    <path d="M15.165124,22.1756103 L10.1444521,22.1756103 L10.1444521,41.3712925 L8.78636225,41.3712925 C7.50443191,41.3712925 6.84562517,40.9429935 6.62566787,39.4641897 L6.62566787,22.1953206 L-0.000213033708,22.1953206 L-0.000213033708,20.6174327 C0.0402633708,19.7619 0.565391461,18.9724234 1.94691506,18.9724234 L16.9679218,18.9724234 L16.9679218,20.3494794 C16.9679218,21.0302832 16.2057937,22.1756103 15.165124,22.1756103" id="Fill-52" fill="#0A612D" sketch:type="MSShapeGroup" mask="url(#mask-4)"></path>
                </g>
                <path d="M26.0342103,41.6832477 C21.7256036,41.6832477 18.7415339,38.6478645 18.7521856,33.4821729 L18.7521856,23.6456776 L19.7603676,23.6456776 C21.2084643,23.6659206 22.2134508,24.4522009 22.2262328,26.0471355 L22.2262328,33.3186308 C22.2134508,36.9218832 24.069507,38.4475654 26.208898,38.4289206 C28.6545249,38.4076121 30.0514935,37.0316215 30.0360485,33.4496776 L30.0147452,23.6898925 L31.1864306,23.6898925 C32.655298,23.7112009 33.3785474,24.468715 33.4440553,26.0471355 L33.4440553,33.7453318 C33.4360665,38.9531075 30.7379946,41.6832477 26.0342103,41.6832477" id="Fill-55" fill="#0A612D" sketch:type="MSShapeGroup"></path>
                <path d="M45.8781937,26.5711626 C43.4820971,26.5711626 41.4300499,28.8010879 41.4300499,32.5955832 C41.4300499,36.3986019 43.1316566,38.4511346 46.1727128,38.4511346 C49.0832858,38.4511346 50.6432252,35.7652093 50.6432252,32.5955832 C50.6432252,27.8528636 48.2199667,26.5711626 45.8781937,26.5711626 M45.7961757,41.6830879 C40.9235622,41.6830879 37.9139285,38.1240505 37.9208521,32.9551626 L37.9208521,17.7457514 L39.6395016,17.7457514 C40.4239982,17.7457514 41.4076813,18.424957 41.4199308,19.7737794 L41.4199308,26.0459103 C42.4776431,24.4307327 44.4024027,23.3386766 46.8224656,23.3386766 C50.844542,23.3386766 54.1582813,26.6020598 54.1582813,32.2930037 C54.1582813,37.6243682 50.7673173,41.6830879 45.7961757,41.6830879" id="Fill-57" fill="#0A612D" sketch:type="MSShapeGroup"></path>
                <path d="M66.1632101,26.5711626 C63.7671135,26.5711626 61.7145337,28.8010879 61.7145337,32.5955832 C61.7145337,36.3986019 63.416673,38.4511346 66.4577292,38.4511346 C69.3683022,38.4511346 70.9282416,35.7652093 70.9282416,32.5955832 C70.9282416,27.8528636 68.5049831,26.5711626 66.1632101,26.5711626 M66.0811921,41.6830879 C61.2085787,41.6830879 58.1989449,38.1240505 58.2058685,32.9551626 L58.2058685,17.7457514 L59.924518,17.7457514 C60.7090146,17.7457514 61.6926978,18.424957 61.7049472,19.7737794 L61.7049472,26.0459103 C62.7626596,24.4307327 64.6874191,23.3386766 67.107482,23.3386766 C71.1295584,23.3386766 74.4432978,26.6020598 74.4432978,32.2930037 C74.4432978,37.6243682 71.0523337,41.6830879 66.0811921,41.6830879" id="Fill-59" fill="#0A612D" sketch:type="MSShapeGroup"></path>
                <path d="M86.2430218,26.4494916 C83.5039409,26.4494916 82.0505184,28.7076505 81.8428106,30.5247252 L81.7650533,31.2779776 L85.3504106,31.2263047 C89.6126825,31.1597159 89.9673836,30.7846879 89.9673836,29.6574729 C89.9673836,27.7402486 88.3579139,26.4494916 86.2430218,26.4494916 M85.7881948,34.0821645 L81.8689072,34.1077346 C82.1660892,37.048828 84.3603364,38.4956692 86.8001049,38.4956692 C89.5093611,38.4956692 91.104451,37.6875477 92.0955903,36.7302673 L92.6313701,36.7036318 L92.6313701,38.4146972 C92.5536128,40.2663981 90.5708016,41.6871364 86.6062443,41.6871364 C81.7496083,41.6871364 78.312842,37.9528374 78.312842,32.8633234 C78.312842,27.1457439 81.8816892,23.3443234 86.573224,23.3443234 C90.0094578,23.3443234 93.2896443,25.9498093 93.2896443,29.4870056 C93.2896443,32.5927065 92.017833,34.0821645 85.7881948,34.0821645" id="Fill-61" fill="#0A612D" sketch:type="MSShapeGroup"></path>
                <path d="M106.631519,27.8202617 C105.67127,27.0206636 104.788245,26.9162523 104.087364,26.9162523 C101.984722,26.9162523 101.206083,27.9811402 101.197562,31.4410935 L101.197562,41.3660187 L99.5971463,41.3660187 C98.5053485,41.3660187 97.8768991,40.5051589 97.7730452,39.3481121 L97.7730452,31.2088318 C97.7799688,26.2668785 100.258616,23.6976168 103.698045,23.6976168 C106.113315,23.6976168 107.005926,24.7566449 107.135877,25.947785 L107.135877,27.8202617 L106.631519,27.8202617 Z" id="Fill-63" fill="#0A612D" sketch:type="MSShapeGroup"></path>
                <path d="M117.538366,26.5530505 C115.118836,26.5530505 112.990096,28.6300879 112.990096,31.1737794 C112.990096,34.6944617 114.730049,35.9260879 117.275802,35.9260879 C119.816761,35.9260879 121.452328,34.2144897 121.452328,31.5493402 C121.452328,27.7670972 119.687876,26.5530505 117.538366,26.5530505 M124.904539,38.7297421 C124.904539,44.1900224 121.09017,46.7150692 116.484914,46.7150692 C113.689912,46.7150692 110.993438,45.3001907 110.889051,43.1954523 L110.889051,41.5626953 L111.485013,41.5626953 C112.471359,42.5716486 113.96366,43.4543495 116.858256,43.4543495 C119.167541,43.4543495 121.582278,42.0005832 121.607842,39.0669477 C121.61157,38.5741907 121.452328,37.6121159 121.452328,36.7560505 L121.400134,36.7560505 C120.5954,38.106471 118.960366,39.0669477 116.96211,39.0930505 C112.679067,39.1505832 109.538418,36.3016486 109.538418,31.9275645 C109.538418,27.5849103 112.275901,23.3264243 117.997986,23.3264243 C121.944436,23.3264243 124.749024,25.7843495 124.749024,30.7849009 L124.749024,35.7439009 C124.749024,36.5658729 124.904539,38.0713121 124.904539,38.7297421" id="Fill-65" fill="#0A612D" sketch:type="MSShapeGroup"></path>
                <path d="M161.665849,41.3759804 C160.440905,41.3759804 159.591433,40.5907654 159.580249,39.4225318 L159.580249,31.2800551 C159.580249,27.6198028 158.084752,26.6369523 155.471893,26.6369523 C153.457127,26.6369523 151.694273,27.6411112 151.694273,31.2800551 L151.694273,41.3759804 L150.176941,41.3759804 C149.08461,41.3759804 148.323015,40.7148869 148.323015,39.3234477 L148.323015,31.2139991 C148.323015,26.2480738 151.301226,23.3341486 155.836714,23.3341486 C160.27101,23.3341486 162.997309,25.9161953 162.994646,31.180971 L162.994646,41.3759804 L161.665849,41.3759804 Z" id="Fill-67" fill="#0A612D" sketch:type="MSShapeGroup"></path>
                <path d="M136.92667,26.4494916 C134.188122,26.4494916 132.733634,28.7076505 132.525926,30.5247252 L132.448169,31.2779776 L136.034059,31.2263047 C140.295798,31.1597159 140.649967,30.7846879 140.649967,29.6574729 C140.649967,27.7402486 139.041562,26.4494916 136.92667,26.4494916 M136.471843,34.0821645 L132.552556,34.1077346 C132.849738,37.048828 135.043985,38.4956692 137.483753,38.4956692 C140.193009,38.4956692 141.788632,37.6875477 142.778706,36.7302673 L143.315551,36.7036318 L143.315551,38.4146972 C143.237794,40.2663981 141.253917,41.6871364 137.28936,41.6871364 C132.432724,41.6871364 128.995958,37.9528374 128.995958,32.8633234 C128.995958,27.1457439 132.565338,23.3443234 137.25634,23.3443234 C140.693106,23.3443234 143.972227,25.9498093 143.972227,29.4870056 C143.972227,32.5927065 142.701481,34.0821645 136.471843,34.0821645" id="Fill-69" fill="#0A612D" sketch:type="MSShapeGroup"></path>
            </g>
        </g>
    </g>
</svg>