{
    "object" : {
        "object_class"    : "controlpanel",
        "actions"         : [],
        "related_objects" : [],
        "type"            : "controlpanel",
        "values" : {
            "owner"         : "betrokkene-bedrijf-2",
            "template"      : "mintlab",
            "customer_type" : "government",
            "shortname"     : "gemmintlab",
            "domain"        : "zaaksysteem.nl"
        },
        "security_rules"  : [],
        "relatable_types" : []
    }
}
